Davis Vaughan - Which RStudio blog posts “pleased” Hadley? A tidytext + web scraping analysis
…
# Extract the data
blog_data <- blog_data %>%
  mutate(
     author = extract_info(main, ".author"),
     title  = extract_info(main, ".title"),
     date   = extract_info(main, ".date")
    )

select(blog_data, author, date)

# A tibble: 253 × 2
   author             date      
   <chr>              <chr>     
 1 Roger Oberg        2017-08-25
 2 Kevin Ushey        2017-08-22
 3 Roger Oberg        2017-08-18
 4 Jonathan McPherson 2017-08-16
 5 Hadley Wickham     2017-08-15
 6 Winston Chang      2017-08-15
 7 Gary Ritchie       2017-08-11
 8 Roger Oberg        2017-08-10
 9 Jeff Allen         2017-08-03
10 Javier Luraschi    2017-07-31
# … with 243 more rows

select(blog_data, title)

# A tibble: 253 × 1
   title                                                                        
   <chr>                                                                        
 1 Newer to R? rstudio::conf 2018 is for you! Early bird pricing ends August 31.
 2 RStudio v1.1 Preview - Object Explorer                                       
 3 RStudio Server Pro is ready for BigQuery on the Google Cloud Platform        
 4 RStudio 1.1 Preview - Data Connections                                       
 5 rstudio::conf(2018): Contributed talks, e-posters, and diversity scholarships
 6 Shiny 1.0.4                                                                  
 7 RStudio v1.1 Preview: Terminal                                               
 8 Building tidy tools workshop                                                 
 9 RStudio Connect v1.5.4 - Now Supporting Plumber!                             
10 sparklyr 0.6                                                                 
# … with 243 more rows
…
# Apply our new extraction function
blog_data <- blog_data %>%
  mutate(
    categories = extract_tag_or_cat(main, "categories"),
    tags       = extract_tag_or_cat(main, "tags")
  )

select(blog_data, categories, tags)

# A tibble: 253 × 2
   categories tags     
   <list>     <list>   
 1 <chr [3]>  <chr [1]>
 2 <chr [1]>  <chr [0]>
 3 <chr [2]>  <chr [4]>
 4 <chr [1]>  <chr [0]>
 5 <chr [1]>  <chr [0]>
 6 <chr [2]>  <chr [0]>
 7 <chr [1]>  <chr [3]>
 8 <chr [3]>  <chr [8]>
 9 <chr [3]>  <chr [2]>
10 <chr [1]>  <chr [3]>
# … with 243 more rows
…
Finally, to extract the blog post itself, we can notice that each piece of text in the post is inside of a paragraph tag (p). Being careful to avoid the ".terms" class that contained the categories and tags, which also happens to be in a paragraph tag, we can extract the full blog posts. To ignore the ".terms" class, use the :not() selector.

blog_data <- blog_data %>%
  mutate(
    text = map_chr(main, ~html_nodes(.x, "p:not(.terms)") %>%
                 html_text() %>%
                 # The text is returned as a character vector. 
                 # Collapse them all into 1 string.
                 paste0(collapse = " "))
  )

select(blog_data, text)

# A tibble: 253 × 1
   text                                                                         
   <chr>                                                                        
 1 "Immersion is among the most effective ways to learn any language. Immersing…
 2 "Today, we’re continuing our blog series on new features in RStudio 1.1. If …
 3 "RStudio is excited to announce the availability of RStudio Server Pro on th…
 4 "Today, we’re continuing our blog series on new features in RStudio 1.1. If …
 5 "rstudio::conf, the conference on all things R and RStudio, will take place …
 6 "Shiny 1.0.4 is now available on CRAN. To install it, run: For most Shiny us…
 7 "Today we’re excited to announce availability of our first Preview Release f…
 8 "Have you embraced the tidyverse? Do you now want to expand it to meet your …
 9 "We’re thrilled to announce support for hosting Plumber APIs in RStudio Conn…
10 "We’re excited to announce a new release of the sparklyr package, available …
# … with 243 more rows
…
Tidytext

I’ve never used tidytext before today, but to get our feet wet, let’s create a tokenized tidy version of our data. By using unnest_tokens() the data will be reshaped to a long format holding 1 word per row, for each blog post. This tidy format lends itself to all manner of analysis, and a number of them are outlined in Julia Silge and David Robinson’s Text Mining with R.

tokenized_blog <- blog_data %>%
  mutate(short_title = str_sub(title, end = 15)) %>%
  select(title, short_title, author, date, text) %>%
  unnest_tokens(output = word, input = text)

select(tokenized_blog, short_title, word)

# A tibble: 85,761 × 2
   short_title     word     
   <chr>           <chr>    
 1 Newer to R? rst immersion
 2 Newer to R? rst is       
 3 Newer to R? rst among    
 4 Newer to R? rst the      
 5 Newer to R? rst most     
 6 Newer to R? rst effective
 7 Newer to R? rst ways     
 8 Newer to R? rst to       
 9 Newer to R? rst learn    
10 Newer to R? rst any      
# … with 85,751 more rows

Remove stop words

A number of words like “a” or “the” are included in the blog that don’t really add value to a text analysis. These stop words can be removed using an anti_join() with the stop_words dataset that comes with tidytext. After removing stop words, the number of rows was cut in half!

tokenized_blog <- tokenized_blog %>%
  anti_join(stop_words, by = "word") %>%
  arrange(desc(date))

select(tokenized_blog, short_title, word)

# A tibble: 40,315 × 2
   short_title     word     
   <chr>           <chr>    
 1 Newer to R? rst immersion
 2 Newer to R? rst effective
 3 Newer to R? rst learn    
 4 Newer to R? rst language 
 5 Newer to R? rst immersing
 6 Newer to R? rst advanced 
 7 Newer to R? rst users    
 8 Newer to R? rst improve  
 9 Newer to R? rst language 
10 Newer to R? rst rare     
# … with 40,305 more rows
…
