Davis Vaughan - ivs 0.1.0
…
To answer this question, we are going to need to create a sequential vector of months that span the entire range of intervals. This starts at the smallest start and goes to the largest end. Because the end is half-open, there won’t be any hits for that month, so we won’t include it.

bounds <- range(enrollments$active)
lower <- iv_start(bounds[[1]])
upper <- iv_end(bounds[[2]]) - 1L

months <- tibble(month = seq(lower, upper, by = 1))

months
#> # A tibble: 27 × 1
#>    month       
#>    <ymd<month>>
#>  1 2017-01     
#>  2 2017-02     
#>  3 2017-03     
#>  4 2017-04     
#>  5 2017-05     
#>  6 2017-06     
#>  7 2017-07     
#>  8 2017-08     
#>  9 2017-09     
#> 10 2017-10     
#> # … with 17 more rows

To finish up, we need to add a column to months to represent the number of subscriptions that were active in that month. To do this we can use iv_count_between(), which returns an integer vector corresponding to the number of times the i-th month fell between any of the intervals in the active subscription interval vector.

months <- months %>%
  mutate(count = iv_count_between(month, enrollments$active))

months
#> # A tibble: 27 × 2
#>    month        count
#>    <ymd<month>> <int>
#>  1 2017-01          3
#>  2 2017-02          3
#>  3 2017-03          1
#>  4 2017-04          2
#>  5 2017-05          2
#>  6 2017-06          3
#>  7 2017-07          3
#>  8 2017-08          3
#>  9 2017-09          3
#> 10 2017-10          3
#> # … with 17 more rows
…
